[
{
    "model": "article.article",
    "pk": 1,
    "fields": {
        "title": "test 1",
        "body": "Lorem ipsum dolor sit amet, libero nibh sit lacus hac, augue luctus magna molestie mus potenti amet. Metus dignissim blandit taciti nunc ut nulla, felis sed elit pede, purus aenean sed orci wisi elit amet, magna accumsan dolor justo integer. Mauris eu id ullamcorper, dolor aliquip morbi nec mi nullam etiam, turpis quis per volutpat purus, per ante, tortor mauris fusce vestibulum. Turpis erat donec donec omnis vitae, tincidunt purus a morbi in egestas est. Mauris aliquet est posuere nunc proin, suscipit nibh duis odit fringilla mollis. Tellus nam dui suspendisse, justo massa wisi in id, nunc non orci consequat aliquam ante. Enim vel arcu lacus. Erat metus dictumst mauris lectus, ipsum felis, risus mi etiam a faucibus, phasellus eleifend quam felis. Quam sed massa a in augue, molestie phasellus malesuada justo. Lorem risus gravida sit torquent amet scelerisque, nam pede sem quis eros massa, dignissim sodales amet volutpat vestibulum libero eu.\r\nPellentesque voluptate tellus curabitur tristique porta massa, interdum laoreet parturient velit, ut suspendisse, nunc tortor augue proin tristique, nec aptent. Eu est dictumst dolor lorem sollicitudin bibendum, non platea ultrices taciti sit, gravida nam porttitor, justo nullam vestibulum aliquam donec pede, vestibulum erat. Mi est est, semper sit cum, pede ad. Volutpat ante in per orci in, sed ut urna eros est metus, massa non vulputate vitae tortor varius nunc. Et laoreet morbi, ac vel eu mauris, in laoreet, tortor quis posuere cursus. Praesent blandit ante est imperdiet eget eget, dui nec vestibulum ullamcorper, fermentum ac quis. Dictum pede arcu, orci nunc, lacus rutrum mollis phasellus dolor orci arcu, odio sem.",
        "pub_date": "2016-04-10T08:46:40Z",
        "likes": 3,
        "thumbnail": "2016-05-08 06:29:24.853047+00:00"
    }
},
{
    "model": "article.article",
    "pk": 2,
    "fields": {
        "title": "test 3",
        "body": "Lorem ipsum dolor sit amet, libero nibh sit lacus hac, augue luctus magna molestie mus potenti amet. Metus dignissim blandit taciti nunc ut nulla, felis sed elit pede, purus aenean sed orci wisi elit amet, magna accumsan dolor justo integer. Mauris eu id ullamcorper, dolor aliquip morbi nec mi nullam etiam, turpis quis per volutpat purus, per ante, tortor mauris fusce vestibulum. Turpis erat donec donec omnis vitae, tincidunt purus a morbi in egestas est. Mauris aliquet est posuere nunc proin, suscipit nibh duis odit fringilla mollis. Tellus nam dui suspendisse, justo massa wisi in id, nunc non orci consequat aliquam ante. Enim vel arcu lacus. Erat metus dictumst mauris lectus, ipsum felis, risus mi etiam a faucibus, phasellus eleifend quam felis. Quam sed massa a in augue, molestie phasellus malesuada justo. Lorem risus gravida sit torquent amet scelerisque, nam pede sem quis eros massa, dignissim sodales amet volutpat vestibulum libero eu.\r\nPellentesque voluptate tellus curabitur tristique porta massa, interdum laoreet parturient velit, ut suspendisse, nunc tortor augue proin tristique, nec aptent. Eu est dictumst dolor lorem sollicitudin bibendum, non platea ultrices taciti sit, gravida nam porttitor, justo nullam vestibulum aliquam donec pede, vestibulum erat. Mi est est, semper sit cum, pede ad. Volutpat ante in per orci in, sed ut urna eros est metus, massa non vulputate vitae tortor varius nunc. Et laoreet morbi, ac vel eu mauris, in laoreet, tortor quis posuere cursus. Praesent blandit ante est imperdiet eget eget, dui nec vestibulum ullamcorper, fermentum ac quis. Dictum pede arcu, orci nunc, lacus rutrum mollis phasellus dolor orci arcu, odio sem.",
        "pub_date": "2016-04-10T08:47:34Z",
        "likes": 4,
        "thumbnail": "2016-05-08 06:29:24.853047+00:00"
    }
},
{
    "model": "article.article",
    "pk": 3,
    "fields": {
        "title": "test 2",
        "body": "Lorem ipsum dolor sit amet, libero nibh sit lacus hac, augue luctus magna molestie mus potenti amet. Metus dignissim blandit taciti nunc ut nulla, felis sed elit pede, purus aenean sed orci wisi elit amet, magna accumsan dolor justo integer. Mauris eu id ullamcorper, dolor aliquip morbi nec mi nullam etiam, turpis quis per volutpat purus, per ante, tortor mauris fusce vestibulum. Turpis erat donec donec omnis vitae, tincidunt purus a morbi in egestas est. Mauris aliquet est posuere nunc proin, suscipit nibh duis odit fringilla mollis. Tellus nam dui suspendisse, justo massa wisi in id, nunc non orci consequat aliquam ante. Enim vel arcu lacus. Erat metus dictumst mauris lectus, ipsum felis, risus mi etiam a faucibus, phasellus eleifend quam felis. Quam sed massa a in augue, molestie phasellus malesuada justo. Lorem risus gravida sit torquent amet scelerisque, nam pede sem quis eros massa, dignissim sodales amet volutpat vestibulum libero eu.\r\nPellentesque voluptate tellus curabitur tristique porta massa, interdum laoreet parturient velit, ut suspendisse, nunc tortor augue proin tristique, nec aptent. Eu est dictumst dolor lorem sollicitudin bibendum, non platea ultrices taciti sit, gravida nam porttitor, justo nullam vestibulum aliquam donec pede, vestibulum erat. Mi est est, semper sit cum, pede ad. Volutpat ante in per orci in, sed ut urna eros est metus, massa non vulputate vitae tortor varius nunc. Et laoreet morbi, ac vel eu mauris, in laoreet, tortor quis posuere cursus. Praesent blandit ante est imperdiet eget eget, dui nec vestibulum ullamcorper, fermentum ac quis. Dictum pede arcu, orci nunc, lacus rutrum mollis phasellus dolor orci arcu, odio sem.",
        "pub_date": "2016-04-10T08:47:05Z",
        "likes": 21,
        "thumbnail": "2016-05-08 06:29:24.853047+00:00"
    }
},
{
    "model": "article.article",
    "pk": 10,
    "fields": {
        "title": "asda",
        "body": "asdsadasdasd",
        "pub_date": "2016-01-31T18:15:00Z",
        "likes": 2,
        "thumbnail": "2016-05-08 06:29:24.853047+00:00"
    }
},
{
    "model": "article.comment",
    "pk": 1,
    "fields": {
        "name": "Manish",
        "body": "Good read man!",
        "pub_date": "2016-05-03T11:22:39.041Z",
        "article": 1
    }
},
{
    "model": "article.comment",
    "pk": 2,
    "fields": {
        "name": "Roger",
        "body": "This is the absolute worse :(",
        "pub_date": "2016-05-03T11:23:12.644Z",
        "article": 1
    }
},
{
    "model": "article.comment",
    "pk": 3,
    "fields": {
        "name": "asdasd",
        "body": "asdasdasd",
        "pub_date": "2016-05-03T11:24:34.312Z",
        "article": 1
    }
},
{
    "model": "article.comment",
    "pk": 4,
    "fields": {
        "name": "wtf",
        "body": "what the f is this?",
        "pub_date": "2016-05-03T11:48:17.911Z",
        "article": 10
    }
}
]
